<svg width="18" height="19" viewBox="0 0 18 19" fill="none" xmlns="http://www.w3.org/2000/svg">
<path d="M1.90833 17.0811C0.818823 16.0021 0.270385 14.7084 0.263023 13.2C0.25566 11.6915 0.79144 10.3925 1.87036 9.30297L9.25866 1.8422C10.0327 1.06059 10.9736 0.667089 12.0814 0.661681C13.1891 0.656274 14.1338 1.04058 14.9154 1.81459C15.697 2.5886 16.0906 3.5295 16.096 4.63728C16.1014 5.74507 15.7171 6.68977 14.9431 7.47137L8.25841 14.2216C7.76586 14.719 7.17782 14.9693 6.49429 14.9727C5.81076 14.976 5.2203 14.7314 4.72292 14.2389C4.22553 13.7463 3.97517 13.1583 3.97184 12.4747C3.9685 11.7912 4.21311 11.2007 4.70566 10.7034L11.3903 3.95314L12.4561 5.00861L5.77149 11.7588C5.57212 11.9602 5.47333 12.1963 5.47513 12.4674C5.47598 12.7385 5.57707 12.9737 5.77839 13.173C5.97971 13.3724 6.21614 13.4714 6.48766 13.4701C6.75825 13.4688 6.99322 13.3675 7.19259 13.1661L13.8772 6.4159C14.3698 5.91852 14.6144 5.32806 14.6111 4.64453C14.6077 3.961 14.3574 3.37296 13.86 2.88041C13.3626 2.38786 12.7721 2.14325 12.0886 2.14659C11.4051 2.14992 10.817 2.40028 10.3245 2.89767L2.93619 10.3584C2.16218 11.14 1.77788 12.0847 1.78328 13.1925C1.78869 14.3003 2.1822 15.2412 2.9638 16.0152C3.74541 16.7892 4.6901 17.1735 5.79789 17.1681C6.90568 17.1627 7.84658 16.7692 8.62059 15.9876L16.0089 8.52684L17.0747 9.58231L9.68641 17.0431C8.60749 18.1326 7.31379 18.681 5.80531 18.6884C4.29684 18.6958 2.99784 18.16 1.90833 17.0811Z"
 fill="lightgray"/>
</svg>
